<?xml version="1.0" encoding="UTF-8"?>
<svg width="831px" height="955px" viewBox="0 0 831 955" version="1.1" xmlns="http://www.w3.org/2000/svg" xmlns:xlink="http://www.w3.org/1999/xlink">
    <!-- Generator: Sketch 49.3 (51167) - http://www.bohemiancoding.com/sketch -->
    <title>Group</title>
    <desc>Created with Sketch.</desc>
    <defs></defs>
    <g id="Page-1" stroke="none" stroke-width="1" fill="none" fill-rule="evenodd">
        <g id="Large-Logo" transform="translate(-81.000000, -16.000000)">
            <g id="Group" transform="translate(79.000000, -96.000000)">
                <g id="Border" transform="translate(0.000000, 103.000000)">
                    <polygon id="Polygon" points="418.5 0 836.62125 241.25 836.62125 723.75 418.5 965 0.3787498 723.75 0.3787498 241.25"></polygon>
                </g>
                <g id="Triangles" transform="translate(2.000000, 0.000000)">
                    <polygon id="Triangle-5" fill="#35627F" points="830.733133 355.066284 830.733133 807.508947 641.986541 490.47198"></polygon>
                    <polygon id="Triangle-7" fill="#6AC4FF" points="176.472977 690.876531 823.961795 832.26696 416.2635 1066.11782"></polygon>
                    <polygon id="Triangle-2" fill="#5FB0E5" transform="translate(630.318049, 242.332492) scale(1, -1) rotate(-149.000000) translate(-630.318049, -242.332492) " points="733.787104 31.4009783 748.067354 453.264006 512.568744 431.432744"></polygon>
                    <polygon id="Triangle-3" fill="#35627F" points="404.039267 112.49592 161.524696 674.458142 1.42048601 342.602347"></polygon>
                    <polygon id="Triangle-4" fill="#5FB0E5" points="0.403250609 366.186962 155.769989 680.868721 0.403250609 816.373123"></polygon>
                    <polygon id="Triangle-8" fill="#35627F" points="160.720631 689.292155 398.402606 1056.74182 4.40877419 826.625106"></polygon>
                    <polygon id="Triangle" fill="#5FB0E5" points="824.154731 831.862159 424.08686 1062.66054 624.120796 789.636768"></polygon>
                    <polygon id="Triangle-6" fill="#4F93BF" points="723.936638 643.461148 825.523947 822.606969 490.258014 752.311433"></polygon>
                </g>
                <path d="M376.261364,485.261364 L376.261364,392 L472.738636,392 L472.738636,485.261364 L566,485.261364 L566,581.738636 L472.738636,581.738636 L472.738636,675 L376.261364,675 L376.261364,581.738636 L283,581.738636 L283,485.261364 L376.261364,485.261364 Z" id="Combined-Shape" fill="#5FB0E5"></path>
            </g>
        </g>
    </g>
</svg>